﻿{
   "status":"Ok",
   "message":null,
   "authKey":"e34de2f4-0c03-4012-87cb-1dd5be4ed7zz",
   "latd":"prbobg@bm.lan",
   "authUser":{
      "uid":"user_entity_57",
      "domainUid":"bm.lan",
      "displayName":"Pierre Rbobg",
      "value":{
         "orgUnitUid":null,
         "emails":[
            {
               "address":"rbobg.pierre@bm.lan",
               "allAliases":false,
               "isDefault":false
            },
            {
               "address":"prbobg@bm.lan",
               "allAliases":false,
               "isDefault":false
            },
            {
               "address":"pierre.rbobg@bm.lan",
               "allAliases":false,
               "isDefault":true
            }
         ],
         "hidden":false,
         "archived":false,
         "system":false,
         "dataLocation":"vdmzbmcoax1",
         "login":"prbobg",
         "password":null,
         "passwordLastChange":null,
         "passwordMustChange":false,
         "passwordNeverExpires":false,
         "contactInfos":{
            "kind":"individual",
            "source":"bm://bm.lan/users/user_entity_57",
            "identification":{
               "formatedName":{
                  "parameters":[
                     
                  ],
                  "value":"Pierre Rbobg"
               },
               "name":{
                  "parameters":[
                     
                  ],
                  "value":null,
                  "familyNames":"Rbobg",
                  "givenNames":"Pierre",
                  "additionalNames":"",
                  "prefixes":null,
                  "suffixes":""
               },
               "nickname":{
                  "parameters":[
                     
                  ],
                  "value":null
               },
               "photo":false,
               "birthday":null,
               "anniversary":null,
               "gender":{
                  "parameters":[
                     
                  ],
                  "value":null,
                  "text":null
               }
            },
            "deliveryAddressing":[
               {
                  "address":{
                     "parameters":[
                        {
                           "label":"TYPE",
                           "value":"work"
                        }
                     ],
                     "value":null,
                     "postOfficeBox":null,
                     "extentedAddress":null,
                     "streetAddress":"Les Vitarelles",
                     "locality":"FAUGUEROLLES",
                     "region":null,
                     "postalCode":"47400",
                     "countryName":"Lot & Garonne"
                  }
               }
            ],
            "communications":{
               "tels":[
                  {
                     "parameters":[
                        {
                           "label":"TYPE",
                           "value":"voice"
                        },
                        {
                           "label":"TYPE",
                           "value":"work"
                        }
                     ],
                     "value":"08 00 00 00 57",
                     "ext":null
                  }
               ],
               "emails":[
                  {
                     "parameters":[
                        {
                           "label":"DEFAULT",
                           "value":"false"
                        },
                        {
                           "label":"SYSTEM",
                           "value":"false"
                        },
                        {
                           "label":"TYPE",
                           "value":"work"
                        }
                     ],
                     "value":"rbobg.pierre@bm.lan"
                  },
                  {
                     "parameters":[
                        {
                           "label":"DEFAULT",
                           "value":"false"
                        },
                        {
                           "label":"SYSTEM",
                           "value":"true"
                        },
                        {
                           "label":"TYPE",
                           "value":"work"
                        }
                     ],
                     "value":"prbobg@bm.lan"
                  },
                  {
                     "parameters":[
                        {
                           "label":"DEFAULT",
                           "value":"true"
                        },
                        {
                           "label":"SYSTEM",
                           "value":"false"
                        },
                        {
                           "label":"TYPE",
                           "value":"work"
                        }
                     ],
                     "value":"pierre.rbobg@bm.lan"
                  }
               ],
               "impps":[
                  
               ],
               "langs":[
                  
               ]
            },
            "organizational":{
               "title":"Technicien N2",
               "role":null,
               "org":{
                  "company":"BM ASP",
                  "division":null,
                  "department":"SSII"
               },
               "member":[
                  
               ]
            },
            "explanatory":{
               "urls":[
                  
               ],
               "categories":[
                  
               ],
               "note":"Created by dpeyrou on 20110905"
            },
            "security":{
               "key":{
                  "parameters":[
                     
                  ],
                  "value":null
               }
            },
            "related":{
               "spouse":null,
               "manager":null,
               "assistant":null
            }
         },
         "routing":"internal",
         "accountType":"FULL",
         "quota":null,
         "properties":{
            
         }
      },
      "roles":[
         "hasOutlook",
         "hasAdminConsole",
         "selfChangeMailIdentities",
         "selfManageDevice",
         "hasCalendar",
         "hasWebmail",
         "hasTbird",
         "domainManager",
         "hasMail",
         "selfChangeSbobngs",
         "hasIM",
         "hasEAS",
         "readDomainFilters",
         "hasCTI",
         "selfChangeMailboxFilter",
         "selfManageVCard",
         "hasDAV"
      ],
      "rolesByOU":{
         "D398F748-0283-4CCF-953C-70088B280BED":[
            "manageUserSubscriptions",
            "manageMailshareSharings",
            "manageMailshare"
         ]
      },
      "sbobngs":{
         "date":"yyyy-MM-dd",
         "work_hours_start":"8",
         "mail_autoDetachmentLimit":"",
         "mail":"true",
         "timezone":"Europe/Paris",
         "password_lifetime":null,
         "mailbox_max_user_quota":"0",
         "domain_max_users":null,
         "mailbox_default_publicfolder_quota":"0",
         "dpBackupSkipTags":"",
         "mailbox_default_user_quota":"2097152",
         "mail_participation":"true",
         "mail_forward_unknown_to_relay":"false",
         "cal_set_im_presence":"false",
         "default_app":"/webmail/",
         "lang":"fr",
         "defaultview":"week",
         "showweekends":"true",
         "im_set_phone_presence":"false",
         "default_allday_event_alert":"",
         "working_days":"mon,tue,wed,thu,fri,",
         "im_public_auth":"",
         "show_declined_events":"false",
         "cal_set_phone_presence":"false",
         "timeformat":"HH:mm",
         "public_fb":"0",
         "domain_max_basic_account":null,
         "mail_routing_relay":"",
         "cal_im_presence":"false",
         "sync_sequence":"0",
         "filehosting_retention":"",
         "work_hours_end":"18",
         "restricted-from":"true",
         "date_upd":"m/d/Y",
         "default_event_alert":"",
         "mailbox_max_publicfolder_quota":"0",
         "domain.sbobng.calendar.sync.min.delay":"3600000",
         "day_weekstart":"monday",
         "filehosting_max_filesize":"0"
      }
   }
}