{
	"id": 7,
	"cells": [
		{
			"i": "02b8fb8c-ab25-4e48-87f7-5a7d91c33420",
			"x": 0,
			"y": 4,
			"w": 12,
			"h": 4,
			"name": "Mean execution time (for each minute)",
			"queries": [
				{
					"query": "SELECT (non_negative_difference(last(\"totalTime\")) / non_negative_difference(last(\"count\")))/1000000 AS \"mean_mean\" FROM \"telegraf\".\"autogen\".\"bm-mapi.mapi-http.executionTime\" WHERE time > :dashboardTime: GROUP BY time(1m) FILL(null)",
					"queryConfig": {
						"database": "",
						"measurement": "",
						"retentionPolicy": "",
						"fields": [],
						"tags": {},
						"groupBy": {
							"time": "",
							"tags": []
						},
						"areTagsAccepted": false,
						"rawText": "SELECT (non_negative_difference(last(\"totalTime\")) / non_negative_difference(last(\"count\")))/1000000 AS \"mean_mean\" FROM \"telegraf\".\"autogen\".\"bm-mapi.mapi-http.executionTime\" WHERE time > :dashboardTime: GROUP BY time(1m) FILL(null)",
						"range": null,
						"shifts": null
					},
					"source": "",
					"type": "influxql"
				}
			],
			"axes": {
				"x": {
					"bounds": [
						"",
						""
					],
					"label": "",
					"prefix": "",
					"suffix": "",
					"base": "10",
					"scale": "linear"
				},
				"y": {
					"bounds": [
						"",
						""
					],
					"label": "ms",
					"prefix": "",
					"suffix": "",
					"base": "10",
					"scale": "linear"
				},
				"y2": {
					"bounds": [
						"",
						""
					],
					"label": "",
					"prefix": "",
					"suffix": "",
					"base": "10",
					"scale": "linear"
				}
			},
			"type": "line",
			"colors": [
				{
					"id": "268520bf-01dc-47b2-90a2-2666989fa95e",
					"type": "scale",
					"hex": "#31C0F6",
					"name": "Nineteen Eighty Four",
					"value": "0"
				},
				{
					"id": "ff0a3454-b069-4fc5-ad27-c4ffc06e08c4",
					"type": "scale",
					"hex": "#A500A5",
					"name": "Nineteen Eighty Four",
					"value": "0"
				},
				{
					"id": "9dfd9c97-91c2-4f9d-8ca1-08ba11043720",
					"type": "scale",
					"hex": "#FF7E27",
					"name": "Nineteen Eighty Four",
					"value": "0"
				}
			],
			"legend": {},
			"tableOptions": {
				"verticalTimeAxis": true,
				"sortBy": {
					"internalName": "time",
					"displayName": "",
					"visible": true
				},
				"wrapping": "truncate",
				"fixFirstColumn": true
			},
			"fieldOptions": [
				{
					"internalName": "time",
					"displayName": "",
					"visible": true
				}
			],
			"timeFormat": "MM/DD/YYYY HH:mm:ss",
			"decimalPlaces": {
				"isEnforced": true,
				"digits": 2
			},
			"note": "",
			"noteVisibility": "default",
			"links": {
				"self": "/chronograf/v1/dashboards/7/cells/02b8fb8c-ab25-4e48-87f7-5a7d91c33420"
			}
		},
		{
			"i": "23d97364-433c-4af0-93cd-de76e814c6cd",
			"x": 8,
			"y": 0,
			"w": 4,
			"h": 4,
			"name": "Outlook users",
			"queries": [
				{
					"query": "SELECT mean(\"value\") AS \"mean_value\" FROM \"telegraf\".\"autogen\".\"bm-mapi.activeSessions.distinctUsers\" WHERE time > :dashboardTime: GROUP BY time(:interval:) FILL(null)",
					"queryConfig": {
						"database": "telegraf",
						"measurement": "bm-mapi.activeSessions.distinctUsers",
						"retentionPolicy": "autogen",
						"fields": [
							{
								"value": "mean",
								"type": "func",
								"alias": "mean_value",
								"args": [
									{
										"value": "value",
										"type": "field",
										"alias": ""
									}
								]
							}
						],
						"tags": {},
						"groupBy": {
							"time": "auto",
							"tags": []
						},
						"areTagsAccepted": false,
						"fill": "null",
						"rawText": null,
						"range": null,
						"shifts": null
					},
					"source": "",
					"type": "influxql"
				}
			],
			"axes": {
				"x": {
					"bounds": [
						"",
						""
					],
					"label": "",
					"prefix": "",
					"suffix": "",
					"base": "10",
					"scale": "linear"
				},
				"y": {
					"bounds": [
						"",
						""
					],
					"label": "",
					"prefix": "",
					"suffix": "",
					"base": "10",
					"scale": "linear"
				},
				"y2": {
					"bounds": [
						"",
						""
					],
					"label": "",
					"prefix": "",
					"suffix": "",
					"base": "10",
					"scale": "linear"
				}
			},
			"type": "line",
			"colors": [
				{
					"id": "268520bf-01dc-47b2-90a2-2666989fa95e",
					"type": "scale",
					"hex": "#31C0F6",
					"name": "Nineteen Eighty Four",
					"value": "0"
				},
				{
					"id": "ff0a3454-b069-4fc5-ad27-c4ffc06e08c4",
					"type": "scale",
					"hex": "#A500A5",
					"name": "Nineteen Eighty Four",
					"value": "0"
				},
				{
					"id": "9dfd9c97-91c2-4f9d-8ca1-08ba11043720",
					"type": "scale",
					"hex": "#FF7E27",
					"name": "Nineteen Eighty Four",
					"value": "0"
				}
			],
			"legend": {},
			"tableOptions": {
				"verticalTimeAxis": true,
				"sortBy": {
					"internalName": "time",
					"displayName": "",
					"visible": true
				},
				"wrapping": "truncate",
				"fixFirstColumn": true
			},
			"fieldOptions": [
				{
					"internalName": "time",
					"displayName": "",
					"visible": true
				}
			],
			"timeFormat": "MM/DD/YYYY HH:mm:ss",
			"decimalPlaces": {
				"isEnforced": true,
				"digits": 2
			},
			"note": "",
			"noteVisibility": "default",
			"links": {
				"self": "/chronograf/v1/dashboards/7/cells/23d97364-433c-4af0-93cd-de76e814c6cd"
			}
		},
		{
			"i": "2a028eb5-373d-4ffa-880d-643130969d2b",
			"x": 4,
			"y": 0,
			"w": 4,
			"h": 4,
			"name": "Sessions count",
			"queries": [
				{
					"query": "SELECT mean(\"value\") AS \"mean_value\" FROM \"telegraf\".\"autogen\".\"bm-mapi.sessions.count\" WHERE time > :dashboardTime: GROUP BY time(:interval:) FILL(null)",
					"queryConfig": {
						"database": "telegraf",
						"measurement": "bm-mapi.sessions.count",
						"retentionPolicy": "autogen",
						"fields": [
							{
								"value": "mean",
								"type": "func",
								"alias": "mean_value",
								"args": [
									{
										"value": "value",
										"type": "field",
										"alias": ""
									}
								]
							}
						],
						"tags": {},
						"groupBy": {
							"time": "auto",
							"tags": []
						},
						"areTagsAccepted": false,
						"fill": "null",
						"rawText": null,
						"range": null,
						"shifts": null
					},
					"source": "",
					"type": "influxql"
				}
			],
			"axes": {
				"x": {
					"bounds": [
						"",
						""
					],
					"label": "",
					"prefix": "",
					"suffix": "",
					"base": "10",
					"scale": "linear"
				},
				"y": {
					"bounds": [
						"",
						""
					],
					"label": "",
					"prefix": "",
					"suffix": "",
					"base": "10",
					"scale": "linear"
				},
				"y2": {
					"bounds": [
						"",
						""
					],
					"label": "",
					"prefix": "",
					"suffix": "",
					"base": "10",
					"scale": "linear"
				}
			},
			"type": "line",
			"colors": [
				{
					"id": "268520bf-01dc-47b2-90a2-2666989fa95e",
					"type": "scale",
					"hex": "#31C0F6",
					"name": "Nineteen Eighty Four",
					"value": "0"
				},
				{
					"id": "ff0a3454-b069-4fc5-ad27-c4ffc06e08c4",
					"type": "scale",
					"hex": "#A500A5",
					"name": "Nineteen Eighty Four",
					"value": "0"
				},
				{
					"id": "9dfd9c97-91c2-4f9d-8ca1-08ba11043720",
					"type": "scale",
					"hex": "#FF7E27",
					"name": "Nineteen Eighty Four",
					"value": "0"
				}
			],
			"legend": {},
			"tableOptions": {
				"verticalTimeAxis": true,
				"sortBy": {
					"internalName": "time",
					"displayName": "",
					"visible": true
				},
				"wrapping": "truncate",
				"fixFirstColumn": true
			},
			"fieldOptions": [
				{
					"internalName": "time",
					"displayName": "",
					"visible": true
				}
			],
			"timeFormat": "MM/DD/YYYY HH:mm:ss",
			"decimalPlaces": {
				"isEnforced": true,
				"digits": 2
			},
			"note": "",
			"noteVisibility": "default",
			"links": {
				"self": "/chronograf/v1/dashboards/7/cells/2a028eb5-373d-4ffa-880d-643130969d2b"
			}
		},
		{
			"i": "b5401718-03a0-4b3e-b066-6fba5f7d3bf3",
			"x": 0,
			"y": 0,
			"w": 4,
			"h": 4,
			"name": "Requests per minute",
			"queries": [
				{
					"query": "SELECT non_negative_derivative(last(\"count\"), 1m) AS \"mean_count\" FROM \"telegraf\".\"autogen\".\"bm-mapi.requestCount\" WHERE time > :dashboardTime: GROUP BY time(:interval:), \"status\" FILL(null)",
					"queryConfig": {
						"database": "",
						"measurement": "",
						"retentionPolicy": "",
						"fields": [],
						"tags": {},
						"groupBy": {
							"time": "",
							"tags": []
						},
						"areTagsAccepted": false,
						"rawText": "SELECT non_negative_derivative(last(\"count\"), 1m) AS \"mean_count\" FROM \"telegraf\".\"autogen\".\"bm-mapi.requestCount\" WHERE time > :dashboardTime: GROUP BY time(:interval:), \"status\" FILL(null)",
						"range": null,
						"shifts": null
					},
					"source": "/chronograf/v1/sources/0",
					"type": "influxql"
				}
			],
			"axes": {
				"x": {
					"bounds": [
						"",
						""
					],
					"label": "",
					"prefix": "",
					"suffix": "",
					"base": "10",
					"scale": "linear"
				},
				"y": {
					"bounds": [
						"",
						""
					],
					"label": "",
					"prefix": "",
					"suffix": "",
					"base": "10",
					"scale": "linear"
				},
				"y2": {
					"bounds": [
						"",
						""
					],
					"label": "",
					"prefix": "",
					"suffix": "",
					"base": "10",
					"scale": "linear"
				}
			},
			"type": "line",
			"colors": [
				{
					"id": "6f8f2065-56c6-413a-b86e-38d8a4c449ab",
					"type": "scale",
					"hex": "#31C0F6",
					"name": "Nineteen Eighty Four",
					"value": "0"
				},
				{
					"id": "1141b9da-85ba-4cb9-be1e-bb00df8db033",
					"type": "scale",
					"hex": "#A500A5",
					"name": "Nineteen Eighty Four",
					"value": "0"
				},
				{
					"id": "2e2a7339-ddc8-4128-9e4d-e78c68ebedf5",
					"type": "scale",
					"hex": "#FF7E27",
					"name": "Nineteen Eighty Four",
					"value": "0"
				}
			],
			"legend": {},
			"tableOptions": {
				"verticalTimeAxis": true,
				"sortBy": {
					"internalName": "time",
					"displayName": "",
					"visible": true
				},
				"wrapping": "truncate",
				"fixFirstColumn": true
			},
			"fieldOptions": [
				{
					"internalName": "time",
					"displayName": "",
					"visible": true
				}
			],
			"timeFormat": "MM/DD/YYYY HH:mm:ss",
			"decimalPlaces": {
				"isEnforced": true,
				"digits": 2
			},
			"note": "",
			"noteVisibility": "default",
			"links": {
				"self": "/chronograf/v1/dashboards/7/cells/b5401718-03a0-4b3e-b066-6fba5f7d3bf3"
			}
		}
	],
	"templates": [],
	"name": "MAPI Insights",
	"organization": "default",
	"links": {
		"self": "/chronograf/v1/dashboards/7",
		"cells": "/chronograf/v1/dashboards/7/cells",
		"templates": "/chronograf/v1/dashboards/7/templates"
	}
}