[
    { 
      "name":"bluemind/node-tests",
      "volumes":[ { "localPath":"/var/backups/bluemind", "containerPath":"/var/backups/bluemind" },
                  { "localPath":"/var/spool/bm-hollowed", "containerPath":"/var/spool/bm-hollowed" } ] 
    },
    { 
      "name":"bluemind/postgres-tests",
      "volumes":[ { "localPath":"/var/backups/bluemind", "containerPath":"/var/backups/bluemind" } ] 
    },
    {
      "name":"bluemind/elasticsearch-tests",
      "volumes":[ { "localPath":"/var/backups/bluemind", "containerPath":"/var/backups/bluemind" } ] 
     },
    {
      "name":"bluemind/imap-role",
      "volumes":[ { "localPath":"/var/backups/bluemind", "containerPath":"/var/backups/bluemind" } ] 
    }
]
