[
	{
		"product":"bm-core",
		"defaultHeap":256,
		"defaultDirect":128,
		"sparePercent":30
	},
	{
		"product":"bm-node",
		"defaultHeap":128,
		"defaultDirect":128,
		"sparePercent":0
	},
	{
		"product":"bm-eas",
		"defaultHeap":128,
		"defaultDirect":128,
		"sparePercent":4
	},
	{
		"product":"bm-elasticsearch",
		"defaultHeap":256,
		"defaultDirect":128,
		"directCap": 2048,
		"sparePercent":40
	},
	{
		"product":"bm-tika",
		"defaultHeap":128,
		"defaultDirect":128,
		"sparePercent":0
	},
	{
		"product":"bm-xmpp",
		"defaultHeap":128,
		"defaultDirect":128,
		"sparePercent":0
	},
	{
		"product":"bm-ysnp",
		"defaultHeap":128,
		"defaultDirect":128,
		"sparePercent":1
	},
	{
		"product":"bm-lmtpd",
		"defaultHeap":256,
		"defaultDirect":256,
		"sparePercent":2
	},
	{
		"product":"bm-milter",
		"defaultHeap":256,
		"defaultDirect":256,
		"sparePercent":3
	},
	{
		"product":"bm-sds-proxy",
		"defaultHeap":128,
		"defaultDirect":128,
		"sparePercent":1
	},
	{
		"product":"bm-mapi",
		"defaultHeap":512,
		"defaultDirect":256,
		"sparePercent":5,
		"optional": true
	},
	{
		"product":"bm-hps",
		"defaultHeap":64,
		"defaultDirect":64,
		"sparePercent":2,
		"cpusBoost":4
	},
	{
		"product":"bm-xivobridge",
		"defaultHeap":128,
		"defaultDirect":128,
		"sparePercent":1,
		"optional": true
	},{
		"product":"bm-webserver",
		"defaultHeap":128,
		"defaultDirect":128,
		"sparePercent":4
	}
]